{
	"wallpapers": [
		{
			"name": "earth",
			"author": "Google Earth View",
			"url": "https://bytebucket.org/le0maz/wallpapers_wallys/raw/4a14ccbd35e1f686a584459a7bbfe9c2f39bb6dc/earth1306/earth.jpeg",
			"dimensions": "1242 x 2208",
			"copyright": "None"
		},
		{
			"name": "earth1",
			"author": "Google Earth View",
			"url": "https://bytebucket.org/le0maz/wallpapers_wallys/raw/4a14ccbd35e1f686a584459a7bbfe9c2f39bb6dc/earth1306/earth1.jpg",
			"dimensions": "2700 x 4800",
			"copyright": "None"
		},
		{
			"name": "earth10",
			"author": "Google Earth View",
			"url": "https://bytebucket.org/le0maz/wallpapers_wallys/raw/4a14ccbd35e1f686a584459a7bbfe9c2f39bb6dc/earth1306/earth10.jpg",
			"dimensions": "2304 x 4096",
			"copyright": "None"
		},
		{
			"name": "earth11",
			"author": "Google Earth View",
			"url": "https://bytebucket.org/le0maz/wallpapers_wallys/raw/4a14ccbd35e1f686a584459a7bbfe9c2f39bb6dc/earth1306/earth11.jpg",
			"dimensions": "2367 x 4096",
			"copyright": "None"
		},
		{
			"name": "earth2",
			"author": "Google Earth View",
			"url": "https://bytebucket.org/le0maz/wallpapers_wallys/raw/4a14ccbd35e1f686a584459a7bbfe9c2f39bb6dc/earth1306/earth2.jpg",
			"dimensions": "1242 x 2208",
			"copyright": "None"
		},
		{
			"name": "earth3",
			"author": "Google Earth View",
			"url": "https://bytebucket.org/le0maz/wallpapers_wallys/raw/4a14ccbd35e1f686a584459a7bbfe9c2f39bb6dc/earth1306/earth3.jpg",
			"dimensions": "1242 x 2208",
			"copyright": "None"
		},
		{
			"name": "earth4",
			"author": "Google Earth View",
			"url": "https://bytebucket.org/le0maz/wallpapers_wallys/raw/4a14ccbd35e1f686a584459a7bbfe9c2f39bb6dc/earth1306/earth4.jpg",
			"dimensions": "2516 x 4472",
			"copyright": "None"
		},
		{
			"name": "earth5",
			"author": "Google Earth View",
			"url": "https://bytebucket.org/le0maz/wallpapers_wallys/raw/4a14ccbd35e1f686a584459a7bbfe9c2f39bb6dc/earth1306/earth5.jpg",
			"dimensions": "1953 x 3470",
			"copyright": "None"
		},
		{
			"name": "earth6",
			"author": "Google Earth View",
			"url": "https://bytebucket.org/le0maz/wallpapers_wallys/raw/4a14ccbd35e1f686a584459a7bbfe9c2f39bb6dc/earth1306/earth6.jpg",
			"dimensions": "2700 x 4800",
			"copyright": "None"
		},
		{
			"name": "earth7",
			"author": "Google Earth View",
			"url": "https://bytebucket.org/le0maz/wallpapers_wallys/raw/4a14ccbd35e1f686a584459a7bbfe9c2f39bb6dc/earth1306/earth7.jpeg",
			"dimensions": "1242 x 2208",
			"copyright": "None"
		},
		{
			"name": "earth8",
			"author": "Google Earth View",
			"url": "https://bytebucket.org/le0maz/wallpapers_wallys/raw/4a14ccbd35e1f686a584459a7bbfe9c2f39bb6dc/earth1306/earth8.jpg",
			"dimensions": "2700 x 4800",
			"copyright": "None"
		},
		{
			"name": "earth9",
			"author": "Google Earth View",
			"url": "https://bytebucket.org/le0maz/wallpapers_wallys/raw/4a14ccbd35e1f686a584459a7bbfe9c2f39bb6dc/earth1306/earth9.jpg",
			"dimensions": "1440 x 2560",
			"copyright": "None"
		}
	]
}